ST558 HW3: Objects, Control Flow and Functions
…
#Reading the data from url
glass_data <- read_csv("https://www4.stat.ncsu.edu/~online/datasets/glass.data",col_names = glass_colnames)

Rows: 214 Columns: 11
── Column specification ────────────────────────────────────────────────────────
Delimiter: ","
dbl (11): ID, RI, Na, Mg, Al, Si, K, Ca, Ba, Fe, Type

ℹ Use `spec()` to retrieve the full column specification for this data.
ℹ Specify the column types or set `show_col_types = FALSE` to quiet this message.

glass_data

# A tibble: 214 × 11
      ID    RI    Na    Mg    Al    Si     K    Ca    Ba    Fe  Type
   <dbl> <dbl> <dbl> <dbl> <dbl> <dbl> <dbl> <dbl> <dbl> <dbl> <dbl>
 1     1  1.52  13.6  4.49  1.1   71.8  0.06  8.75     0  0        1
 2     2  1.52  13.9  3.6   1.36  72.7  0.48  7.83     0  0        1
 3     3  1.52  13.5  3.55  1.54  73.0  0.39  7.78     0  0        1
 4     4  1.52  13.2  3.69  1.29  72.6  0.57  8.22     0  0        1
 5     5  1.52  13.3  3.62  1.24  73.1  0.55  8.07     0  0        1
 6     6  1.52  12.8  3.61  1.62  73.0  0.64  8.07     0  0.26     1
 7     7  1.52  13.3  3.6   1.14  73.1  0.58  8.17     0  0        1
 8     8  1.52  13.2  3.61  1.05  73.2  0.57  8.24     0  0        1
 9     9  1.52  14.0  3.58  1.37  72.1  0.56  8.3      0  0        1
10    10  1.52  13    3.6   1.36  73.0  0.57  8.4      0  0.11     1
# ℹ 204 more rows
…
glass_data_reprocessed <- glass_data |>
  mutate(Type = case_when(
    Type == 1~"building_windows_float_processed",
    Type == 2~"building_windows_non_float_processed",
    Type == 3~"vehicle_windows_float_processed",
    Type == 4~"vehicle_windows_non_float_processed",
    Type == 5~"containers",
    Type == 6~"tableware",
    Type == 7~"headlamps"))

#Preview
glass_data_reprocessed

# A tibble: 214 × 11
      ID    RI    Na    Mg    Al    Si     K    Ca    Ba    Fe Type             
   <dbl> <dbl> <dbl> <dbl> <dbl> <dbl> <dbl> <dbl> <dbl> <dbl> <chr>            
 1     1  1.52  13.6  4.49  1.1   71.8  0.06  8.75     0  0    building_windows…
 2     2  1.52  13.9  3.6   1.36  72.7  0.48  7.83     0  0    building_windows…
 3     3  1.52  13.5  3.55  1.54  73.0  0.39  7.78     0  0    building_windows…
 4     4  1.52  13.2  3.69  1.29  72.6  0.57  8.22     0  0    building_windows…
 5     5  1.52  13.3  3.62  1.24  73.1  0.55  8.07     0  0    building_windows…
 6     6  1.52  12.8  3.61  1.62  73.0  0.64  8.07     0  0.26 building_windows…
 7     7  1.52  13.3  3.6   1.14  73.1  0.58  8.17     0  0    building_windows…
 8     8  1.52  13.2  3.61  1.05  73.2  0.57  8.24     0  0    building_windows…
 9     9  1.52  14.0  3.58  1.37  72.1  0.56  8.3      0  0    building_windows…
10    10  1.52  13    3.6   1.36  73.0  0.57  8.4      0  0.11 building_windows…
# ℹ 204 more rows
Returning filtered subset glass_data_filtered with Fe less than 0.2 and is of type “tableware” or “headlamps” by adding filter() to the chain.

glass_data_filtered <- glass_data |>
  mutate(Type = case_when(
    Type == 1~"building_windows_float_processed",
    Type == 2~"building_windows_non_float_processed",
    Type == 3~"vehicle_windows_float_processed",
    Type == 4~"vehicle_windows_non_float_processed",
    Type == 5~"containers",
    Type == 6~"tableware",
    Type == 7~"headlamps")) |>
  filter(Type %in% c("tableware","headlamps"),Fe < 0.2)
glass_data_filtered

# A tibble: 38 × 11
      ID    RI    Na    Mg    Al    Si     K    Ca    Ba    Fe Type     
   <dbl> <dbl> <dbl> <dbl> <dbl> <dbl> <dbl> <dbl> <dbl> <dbl> <chr>    
 1   177  1.52  14    2.39  1.56  72.4  0     9.57  0        0 tableware
 2   178  1.52  13.8  2.41  1.19  72.8  0     9.77  0        0 tableware
 3   179  1.52  14.5  2.24  1.62  72.4  0     9.26  0        0 tableware
 4   180  1.52  14.1  2.19  1.66  72.7  0     9.32  0        0 tableware
 5   181  1.51  14.4  1.74  1.54  74.6  0     7.59  0        0 tableware
 6   182  1.52  15.0  0.78  1.74  72.5  0     9.95  0        0 tableware
 7   183  1.52  14.2  0     2.09  72.7  0    10.9   0        0 tableware
 8   184  1.52  14.6  0     0.56  73.5  0    11.2   0        0 tableware
 9   185  1.51  17.4  0     0.34  75.4  0     6.65  0        0 tableware
10   186  1.51  13.7  3.2   1.81  72.8  1.76  5.43  1.19     0 headlamps
# ℹ 28 more rows
…
Rows: 1484 Columns: 10
── Column specification ────────────────────────────────────────────────────────
Delimiter: "  "
chr (2): seq_name, class
dbl (8): mcg, gvh, alm, mit, erl, pox, vac, nuk

ℹ Use `spec()` to retrieve the full column specification for this data.
ℹ Specify the column types or set `show_col_types = FALSE` to quiet this message.

yeast_data

# A tibble: 1,484 × 10
   seq_name     mcg   gvh   alm   mit   erl   pox   vac   nuk class
   <chr>      <dbl> <dbl> <dbl> <dbl> <dbl> <dbl> <dbl> <dbl> <chr>
 1 ADT1_YEAST  0.58  0.61  0.47  0.13   0.5   0    0.48  0.22 MIT  
 2 ADT2_YEAST  0.43  0.67  0.48  0.27   0.5   0    0.53  0.22 MIT  
 3 ADT3_YEAST  0.64  0.62  0.49  0.15   0.5   0    0.53  0.22 MIT  
 4 AAR2_YEAST  0.58  0.44  0.57  0.13   0.5   0    0.54  0.22 NUC  
 5 AATM_YEAST  0.42  0.44  0.48  0.54   0.5   0    0.48  0.22 MIT  
 6 AATC_YEAST  0.51  0.4   0.56  0.17   0.5   0.5  0.49  0.22 CYT  
 7 ABC1_YEAST  0.5   0.54  0.48  0.65   0.5   0    0.53  0.22 MIT  
 8 BAF1_YEAST  0.48  0.45  0.59  0.2    0.5   0    0.58  0.34 NUC  
 9 ABF2_YEAST  0.55  0.5   0.66  0.36   0.5   0    0.49  0.22 MIT  
10 ABP1_YEAST  0.4   0.39  0.6   0.15   0.5   0    0.58  0.3  CYT  
# ℹ 1,474 more rows

Excluding seq_name and nuk columns from yeast_data using select().

#Selecting columns to exclude using -c()
yeast_data_filtered <- yeast_data |>
  select(-c(seq_name,nuk))
yeast_data_filtered

# A tibble: 1,484 × 8
     mcg   gvh   alm   mit   erl   pox   vac class
   <dbl> <dbl> <dbl> <dbl> <dbl> <dbl> <dbl> <chr>
 1  0.58  0.61  0.47  0.13   0.5   0    0.48 MIT  
 2  0.43  0.67  0.48  0.27   0.5   0    0.53 MIT  
 3  0.64  0.62  0.49  0.15   0.5   0    0.53 MIT  
 4  0.58  0.44  0.57  0.13   0.5   0    0.54 NUC  
 5  0.42  0.44  0.48  0.54   0.5   0    0.48 MIT  
 6  0.51  0.4   0.56  0.17   0.5   0.5  0.49 CYT  
 7  0.5   0.54  0.48  0.65   0.5   0    0.53 MIT  
 8  0.48  0.45  0.59  0.2    0.5   0    0.58 NUC  
 9  0.55  0.5   0.66  0.36   0.5   0    0.49 MIT  
10  0.4   0.39  0.6   0.15   0.5   0    0.58 CYT  
# ℹ 1,474 more rows

Grouping the yeast_data by class within the chain and creating new columns using mutate() . Within mutate, applying the mean and median for each numerical variable with across() .

yeast_data_processed <- yeast_data |>
  select(-c(seq_name,nuk)) |>
  group_by(class) |>
  mutate(across(c(mcg, gvh, alm, mit, erl, pox, vac), list(mean = mean, median = median), .names = "{.fn}_{.col}"))
yeast_data_processed

# A tibble: 1,484 × 22
# Groups:   class [44]
     mcg   gvh   alm   mit   erl   pox   vac class mean_mcg median_mcg mean_gvh
   <dbl> <dbl> <dbl> <dbl> <dbl> <dbl> <dbl> <chr>    <dbl>      <dbl>    <dbl>
 1  0.58  0.61  0.47  0.13   0.5   0    0.48 MIT      0.521       0.51    0.531
 2  0.43  0.67  0.48  0.27   0.5   0    0.53 MIT      0.521       0.51    0.531
 3  0.64  0.62  0.49  0.15   0.5   0    0.53 MIT      0.521       0.51    0.531
 4  0.58  0.44  0.57  0.13   0.5   0    0.54 NUC      0.453       0.45    0.458
 5  0.42  0.44  0.48  0.54   0.5   0    0.48 MIT      0.521       0.51    0.531
 6  0.51  0.4   0.56  0.17   0.5   0.5  0.49 CYT      0.480       0.48    0.469
 7  0.5   0.54  0.48  0.65   0.5   0    0.53 MIT      0.521       0.51    0.531
 8  0.48  0.45  0.59  0.2    0.5   0    0.58 NUC      0.453       0.45    0.458
 9  0.55  0.5   0.66  0.36   0.5   0    0.49 MIT      0.521       0.51    0.531
10  0.4   0.39  0.6   0.15   0.5   0    0.58 CYT      0.480       0.48    0.469
# ℹ 1,474 more rows
# ℹ 11 more variables: median_gvh <dbl>, mean_alm <dbl>, median_alm <dbl>,
#   mean_mit <dbl>, median_mit <dbl>, mean_erl <dbl>, median_erl <dbl>,
#   mean_pox <dbl>, median_pox <dbl>, mean_vac <dbl>, median_vac <dbl>

Task 3: Combining Excel and Delimited Data

Reading the readxl data and reading the file from local directory

library(readxl)
white_wine <- read_excel("white-wine.xlsx")
white_wine

# A tibble: 4,898 × 12
   `fixed acidity` `volatile acidity` `citric acid` `residual sugar` chlorides
             <dbl>              <dbl>         <dbl>            <dbl>     <dbl>
 1               7               0.27          0.36             20.7     0.045
 2              63               0.3           0.34              1.6     0.049
 3              81               0.28          0.4               6.9     0.05 
 4              72               0.23          0.32              8.5     0.058
 5              72               0.23          0.32              8.5     0.058
 6              81               0.28          0.4               6.9     0.05 
 7              62               0.32          0.16              7       0.045
 8               7               0.27          0.36             20.7     0.045
 9              63               0.3           0.34              1.6     0.049
10              81               0.22          0.43              1.5     0.044
# ℹ 4,888 more rows
# ℹ 7 more variables: `free sulfur dioxide` <dbl>,
#   `total sulfur dioxide` <dbl>, density <dbl>, pH <dbl>, sulphates <dbl>,
#   alcohol <dbl>, quality <dbl>

Modifying the variable names using sheet 2 from white-wine.xlsx .

white_wine_cols <- read_excel("white-wine.xlsx",sheet = 2)

colnames(white_wine) <- white_wine_cols$Variables
white_wine

# A tibble: 4,898 × 12
   fixed_acidity volatile_acidity citric_acid residual_sugar chlorides
           <dbl>            <dbl>       <dbl>          <dbl>     <dbl>
 1             7             0.27        0.36           20.7     0.045
 2            63             0.3         0.34            1.6     0.049
 3            81             0.28        0.4             6.9     0.05 
 4            72             0.23        0.32            8.5     0.058
 5            72             0.23        0.32            8.5     0.058
 6            81             0.28        0.4             6.9     0.05 
 7            62             0.32        0.16            7       0.045
 8             7             0.27        0.36           20.7     0.045
 9            63             0.3         0.34            1.6     0.049
10            81             0.22        0.43            1.5     0.044
# ℹ 4,888 more rows
# ℹ 7 more variables: free_sulfur_dioxide <dbl>, total_sulfur_dioxide <dbl>,
#   density <dbl>, pH <dbl>, sulphates <dbl>, alcohol <dbl>, quality <dbl>

Adding a column corresponding to wine type. For this all the observations are “white”

white_wine$type <- "white"
white_wine

# A tibble: 4,898 × 13
   fixed_acidity volatile_acidity citric_acid residual_sugar chlorides
           <dbl>            <dbl>       <dbl>          <dbl>     <dbl>
 1             7             0.27        0.36           20.7     0.045
 2            63             0.3         0.34            1.6     0.049
 3            81             0.28        0.4             6.9     0.05 
 4            72             0.23        0.32            8.5     0.058
 5            72             0.23        0.32            8.5     0.058
 6            81             0.28        0.4             6.9     0.05 
 7            62             0.32        0.16            7       0.045
 8             7             0.27        0.36           20.7     0.045
 9            63             0.3         0.34            1.6     0.049
10            81             0.22        0.43            1.5     0.044
# ℹ 4,888 more rows
# ℹ 8 more variables: free_sulfur_dioxide <dbl>, total_sulfur_dioxide <dbl>,
#   density <dbl>, pH <dbl>, sulphates <dbl>, alcohol <dbl>, quality <dbl>,
#   type <chr>
…
red_wine <- read_delim("https://www4.stat.ncsu.edu/~online/datasets/red-wine.csv", delim = ";", col_names = TRUE)

Rows: 1599 Columns: 12
── Column specification ────────────────────────────────────────────────────────
Delimiter: ";"
dbl (12): fixed acidity, volatile acidity, citric acid, residual sugar, chlo...

ℹ Use `spec()` to retrieve the full column specification for this data.
ℹ Specify the column types or set `show_col_types = FALSE` to quiet this message.

colnames(red_wine) <- white_wine_cols$Variables
red_wine

# A tibble: 1,599 × 12
   fixed_acidity volatile_acidity citric_acid residual_sugar chlorides
           <dbl>            <dbl>       <dbl>          <dbl>     <dbl>
 1           7.4             0.7         0               1.9     0.076
 2           7.8             0.88        0               2.6     0.098
 3           7.8             0.76        0.04            2.3     0.092
 4          11.2             0.28        0.56            1.9     0.075
 5           7.4             0.7         0               1.9     0.076
 6           7.4             0.66        0               1.8     0.075
 7           7.9             0.6         0.06            1.6     0.069
 8           7.3             0.65        0               1.2     0.065
 9           7.8             0.58        0.02            2       0.073
10           7.5             0.5         0.36            6.1     0.071
# ℹ 1,589 more rows
# ℹ 7 more variables: free_sulfur_dioxide <dbl>, total_sulfur_dioxide <dbl>,
#   density <dbl>, pH <dbl>, sulphates <dbl>, alcohol <dbl>, quality <dbl>

Adding a column corresponding to wine type. For this all the observations are “red.”

red_wine$type <- "red"
red_wine

# A tibble: 1,599 × 13
   fixed_acidity volatile_acidity citric_acid residual_sugar chlorides
           <dbl>            <dbl>       <dbl>          <dbl>     <dbl>
 1           7.4             0.7         0               1.9     0.076
 2           7.8             0.88        0               2.6     0.098
 3           7.8             0.76        0.04            2.3     0.092
 4          11.2             0.28        0.56            1.9     0.075
 5           7.4             0.7         0               1.9     0.076
 6           7.4             0.66        0               1.8     0.075
 7           7.9             0.6         0.06            1.6     0.069
 8           7.3             0.65        0               1.2     0.065
 9           7.8             0.58        0.02            2       0.073
10           7.5             0.5         0.36            6.1     0.071
# ℹ 1,589 more rows
# ℹ 8 more variables: free_sulfur_dioxide <dbl>, total_sulfur_dioxide <dbl>,
#   density <dbl>, pH <dbl>, sulphates <dbl>, alcohol <dbl>, quality <dbl>,
#   type <chr>

Joining red_wine and white_wine to obtain wine_df using bind_rows() .

wine_df <- bind_rows(red_wine,white_wine)
wine_df

# A tibble: 6,497 × 13
   fixed_acidity volatile_acidity citric_acid residual_sugar chlorides
           <dbl>            <dbl>       <dbl>          <dbl>     <dbl>
 1           7.4             0.7         0               1.9     0.076
 2           7.8             0.88        0               2.6     0.098
 3           7.8             0.76        0.04            2.3     0.092
 4          11.2             0.28        0.56            1.9     0.075
 5           7.4             0.7         0               1.9     0.076
 6           7.4             0.66        0               1.8     0.075
 7           7.9             0.6         0.06            1.6     0.069
 8           7.3             0.65        0               1.2     0.065
 9           7.8             0.58        0.02            2       0.073
10           7.5             0.5         0.36            6.1     0.071
# ℹ 6,487 more rows
# ℹ 8 more variables: free_sulfur_dioxide <dbl>, total_sulfur_dioxide <dbl>,
#   density <dbl>, pH <dbl>, sulphates <dbl>, alcohol <dbl>, quality <dbl>,
#   type <chr>

Filtering wine_df with quality > 6.5 and alcohol < 132.

wine_df |>
  filter(quality > 6.5 & alcohol < 132)

# A tibble: 1,206 × 13
   fixed_acidity volatile_acidity citric_acid residual_sugar chlorides
           <dbl>            <dbl>       <dbl>          <dbl>     <dbl>
 1           7.3            0.65         0               1.2     0.065
 2           7.8            0.58         0.02            2       0.073
 3           8.5            0.28         0.56            1.8     0.092
 4           8.1            0.38         0.28            2.1     0.066
 5           7.5            0.52         0.16            1.9     0.085
 6           8              0.59         0.16            1.8     0.065
 7           5.4            0.835        0.08            1.2     0.046
 8           9.6            0.32         0.47            1.4     0.056
 9          12.8            0.3          0.74            2.6     0.095
10          12.8            0.3          0.74            2.6     0.095
# ℹ 1,196 more rows
# ℹ 8 more variables: free_sulfur_dioxide <dbl>, total_sulfur_dioxide <dbl>,
#   density <dbl>, pH <dbl>, sulphates <dbl>, alcohol <dbl>, quality <dbl>,
#   type <chr>

Sorting the data by quality in descending order using arrange(desc()) .

wine_df |>
  filter(quality > 6.5 & alcohol < 132) |>
  arrange(desc(quality))

# A tibble: 1,206 × 13
   fixed_acidity volatile_acidity citric_acid residual_sugar chlorides
           <dbl>            <dbl>       <dbl>          <dbl>     <dbl>
 1          91               0.27        0.45           10.6     0.035
 2          66               0.36        0.29            1.6     0.021
 3          74               0.24        0.36            2       0.031
 4          69               0.36        0.34            4.2     0.018
 5          71               0.26        0.49            2.2     0.032
 6           7.9             0.35        0.46            3.6     0.078
 7          10.3             0.32        0.45            6.4     0.073
 8           5.6             0.85        0.05            1.4     0.045
 9          12.6             0.31        0.72            2.2     0.072
10          11.3             0.62        0.67            5.2     0.086
# ℹ 1,196 more rows
# ℹ 8 more variables: free_sulfur_dioxide <dbl>, total_sulfur_dioxide <dbl>,
#   density <dbl>, pH <dbl>, sulphates <dbl>, alcohol <dbl>, quality <dbl>,
#   type <chr>

selecting the columns acid, alcohol, type and quality using select() .

wine_df |>
  filter(quality > 6.5 & alcohol < 132) |>
  arrange(desc(quality)) |>
  select(contains("acid"),c(alcohol, type, quality))

# A tibble: 1,206 × 6
   fixed_acidity volatile_acidity citric_acid alcohol type  quality
           <dbl>            <dbl>       <dbl>   <dbl> <chr>   <dbl>
 1          91               0.27        0.45   104   white       9
 2          66               0.36        0.29   124   white       9
 3          74               0.24        0.36   125   white       9
 4          69               0.36        0.34   127   white       9
 5          71               0.26        0.49   129   white       9
 6           7.9             0.35        0.46    12.8 red         8
 7          10.3             0.32        0.45    12.6 red         8
 8           5.6             0.85        0.05    12.9 red         8
 9          12.6             0.31        0.72     9.8 red         8
10          11.3             0.62        0.67    13.4 red         8
# ℹ 1,196 more rows
…
